{
    "KPackageStructure": "Plasma/Applet",
    "KPlugin": {
        "Authors": [
            {
                "Email": "jgrulich@redhat.com,ltinkl@redhat.com",
                "Name": "Jan Grulich,Lukáš Tinkl",
                "Name[ar]": "Jan Grulich,Lukáš Tinkl",
                "Name[az]": "Jan Grulich,Lukáš Tinkl",
                "Name[bg]": "Jan Grulich,Lukáš Tinkl",
                "Name[ca@valencia]": "Jan Grulich,Lukáš Tinkl",
                "Name[ca]": "Jan Grulich,Lukáš Tinkl",
                "Name[cs]": "Jan Grulich,Lukáš Tinkl",
                "Name[de]": "Jan Grulich, Lukáš Tinkl",
                "Name[el]": "Jan Grulich,Lukáš Tinkl",
                "Name[en_GB]": "Jan Grulich,Lukáš Tinkl",
                "Name[eo]": "Jan Grulich,Lukáš Tinkl",
                "Name[es]": "Jan Grulich,Lukáš Tinkl",
                "Name[eu]": "Jan Grulich,Lukáš Tinkl",
                "Name[fi]": "Jan Grulich,Lukáš Tinkl",
                "Name[fr]": "Jan Grulich, Lukáš Tinkl",
                "Name[gl]": "Jan Grulich,Lukáš Tinkl",
                "Name[he]": "יאן גרוליך, לוקאש טינקל",
                "Name[hu]": "Jan Grulich,Lukáš Tinkl",
                "Name[ia]": "Jan Grulich,Lukáš Tinkl",
                "Name[is]": "Jan Grulich,Lukáš Tinkl",
                "Name[it]": "Jan Grulich,Lukáš Tinkl",
                "Name[ka]": "Jan Grulich,Lukáš Tinkl",
                "Name[ko]": "Jan Grulich,Lukáš Tinkl",
                "Name[lt]": "Jan Grulich,Lukáš Tinkl",
                "Name[nl]": "Jan Grulich,Lukáš Tinkl",
                "Name[nn]": "Jan Grulich, Lukáš Tinkl",
                "Name[pl]": "Jan Grulich,Lukáš Tinkl",
                "Name[pt]": "Jan Grulich,Lukáš Tinkl",
                "Name[pt_BR]": "Jan Grulich,Lukáš Tinkl",
                "Name[ro]": "Jan Grulich,Lukáš Tinkl",
                "Name[ru]": "Jan Grulich,Lukáš Tinkl",
                "Name[sk]": "Jan Grulich,Lukáš Tinkl",
                "Name[sl]": "Jan Grulich,Lukáš Tinkl",
                "Name[sv]": "Jan Grulich,Lukáš Tinkl",
                "Name[ta]": "ஜான் குரூலிச், லூக்காஸ் டிங்க்குள்",
                "Name[tr]": "Jan Grulich,Lukáš Tinkl",
                "Name[uk]": "Jan Grulich, Lukáš Tinkl",
                "Name[x-test]": "xxJan Grulich,Lukáš Tinklxx",
                "Name[zh_CN]": "Jan Grulich,Lukáš Tinkl",
                "Name[zh_TW]": "Jan Grulich,Lukáš Tinkl"
            }
        ],
        "BugReportUrl": "https://bugs.kde.org/enter_bug.cgi?product=plasma-nm&component=applet",
        "Category": "System Information",
        "Description": "Network status and control",
        "Description[ar]": "حالة الشّبكة والتّحكّم بها",
        "Description[az]": "Şəbəkə statusu və idarəsi",
        "Description[bg]": "Състояние и контрол на мрежата",
        "Description[ca@valencia]": "Control i estat de la xarxa",
        "Description[ca]": "Control i estat de la xarxa",
        "Description[cs]": "Stav a ovládání sítě",
        "Description[de]": "Netzwerkstatus und -steuerung",
        "Description[el]": "Κατάσταση δικτύου και έλεγχος",
        "Description[en_GB]": "Network status and control",
        "Description[eo]": "Reto statuso kaj kontrolo",
        "Description[es]": "Estado y control de redes",
        "Description[eu]": "Sareen egoera eta agintea",
        "Description[fi]": "Verkon tila ja hallinta",
        "Description[fr]": "État et contrôle du réseau",
        "Description[gl]": "Monitorización e control da rede.",
        "Description[he]": "מצב ושליטה על הרשת",
        "Description[hu]": "Hálózatállapot és vezérlés",
        "Description[ia]": "Stato e controlo de rete",
        "Description[is]": "Netstaða og umsjón",
        "Description[it]": "Stato e controllo della rete",
        "Description[ka]": "ქსელის მდგომარეობა და მართვა",
        "Description[ko]": "네트워크 상태 및 제어",
        "Description[lt]": "Tinklo būsena ir valdymas",
        "Description[nl]": "Netwerkstatus en besturing",
        "Description[nn]": "Nettverksstatus og -styring",
        "Description[pl]": "Stan i obsługa sieci",
        "Description[pt]": "Estado e controlo da rede",
        "Description[pt_BR]": "Status e controle da rede",
        "Description[ro]": "Starea și controlul rețelei",
        "Description[ru]": "Состояние и управление сетью",
        "Description[sk]": "Správa a ovládanie siete",
        "Description[sl]": "Stanje omrežja in nadzor",
        "Description[sv]": "Nätverksstatus och kontroll",
        "Description[ta]": "பிணைய நிலை மற்றும் கட்டுப்பாடு",
        "Description[tr]": "Ağ denetim ve durum izleme",
        "Description[uk]": "Стеження за станом і керування мережею",
        "Description[x-test]": "xxNetwork status and controlxx",
        "Description[zh_CN]": "网络状态和控制",
        "Description[zh_TW]": "網路狀態與控制",
        "EnabledByDefault": true,
        "FormFactors": [
            "desktop"
        ],
        "Icon": "preferences-system-network",
        "Id": "org.kde.plasma.networkmanagement",
        "License": "GPL",
        "Name": "Networks",
        "Name[ar]": "الشّبكات",
        "Name[ast]": "Redes",
        "Name[az]": "Şəbəkələr",
        "Name[bg]": "Мрежи",
        "Name[bs]": "Mreže",
        "Name[ca@valencia]": "Xarxes",
        "Name[ca]": "Xarxes",
        "Name[cs]": "Sítě",
        "Name[da]": "Netværk",
        "Name[de]": "Netzwerke",
        "Name[el]": "Δίκτυα",
        "Name[en_GB]": "Networks",
        "Name[eo]": "Retoj",
        "Name[es]": "Redes",
        "Name[et]": "Võrgud",
        "Name[eu]": "Sareak",
        "Name[fi]": "Verkot",
        "Name[fr]": "Réseaux",
        "Name[gl]": "Redes",
        "Name[he]": "רשתות",
        "Name[hsb]": "Syć",
        "Name[hu]": "Hálózatok",
        "Name[ia]": "Retes",
        "Name[id]": "Jaringan",
        "Name[is]": "Net",
        "Name[it]": "Reti",
        "Name[ja]": "ネットワーク",
        "Name[ka]": "ქსელები",
        "Name[ko]": "네트워크",
        "Name[lt]": "Tinklai",
        "Name[ml]": "ശൃംഖലകൾ",
        "Name[nb]": "Nettverk",
        "Name[nds]": "Nettwarken",
        "Name[nl]": "Netwerken",
        "Name[nn]": "Nettverk",
        "Name[pa]": "ਨੈੱਟਵਰਕ",
        "Name[pl]": "Sieci",
        "Name[pt]": "Redes",
        "Name[pt_BR]": "Redes",
        "Name[ro]": "Rețele",
        "Name[ru]": "Сети",
        "Name[sk]": "Siete",
        "Name[sl]": "Omrežja",
        "Name[sr@ijekavian]": "Мреже",
        "Name[sr@ijekavianlatin]": "Mreže",
        "Name[sr@latin]": "Mreže",
        "Name[sr]": "Мреже",
        "Name[sv]": "Nätverk",
        "Name[ta]": "பிணையங்கள்",
        "Name[tg]": "Шабакаҳо",
        "Name[tr]": "Ağlar",
        "Name[uk]": "Мережі",
        "Name[x-test]": "xxNetworksxx",
        "Name[zh_CN]": "网络",
        "Name[zh_TW]": "網路",
        "Website": "https://projects.kde.org/projects/kde/workspace/plasma-nm"
    },
    "X-KDE-Keywords": "network,internet,ethernet,wireless,wifi,wlan,vpn",
    "X-Plasma-API-Minimum-Version": "6.0",
    "X-Plasma-DBusActivationService": "org.freedesktop.NetworkManager",
    "X-Plasma-NotificationAreaCategory": "Hardware"
}
